val_loss,val_accuracy,loss,accuracy,lr
0.05456305295228958,0.9937499761581421,0.2889250162197277,0.9115625023841858,0.0010000000474974513
0.06480984389781952,0.9750000238418579,0.07824448404222493,0.9793750047683716,0.0010000000474974513
0.00537196546792984,0.9887499809265137,0.0745503616142014,0.9815624952316284,0.0010000000474974513
0.15615825355052948,0.9900000095367432,0.03462832526511193,0.9896875023841858,0.0010000000474974513
0.001025930279865861,0.9750000238418579,0.03593845130123555,0.9903125166893005,0.0010000000474974513
0.40944719314575195,0.9862499833106995,0.030900979793823353,0.9896875023841858,0.0010000000474974513
0.00010778411524370313,0.9862499833106995,0.026194164901125985,0.9918749928474426,0.0010000000474974513
0.15932272374629974,0.9925000071525574,0.021633241910376456,0.9959375262260437,0.00010000000474974513
0.10344842821359634,0.9925000071525574,0.007443251729764597,0.9975000023841858,0.00010000000474974513
0.0008680664468556643,0.9900000095367432,0.0029224490082532385,0.9990624785423279,0.00010000000474974513
1.6242152014456224e-06,0.9900000095367432,0.008955804922443349,0.9981250166893005,0.00010000000474974513
0.0002797897323034704,0.9925000071525574,0.0029904146131451625,0.9993749856948853,0.00010000000474974513
0.00025269968318752944,0.9912499785423279,0.0034133449442686013,0.9990624785423279,0.00010000000474974513
