,filenames,class_label,true,predicted
0,D:\AI\Classification-Pipeline\data/tree/tree334.jpg,tree,9,9
1,D:\AI\Classification-Pipeline\data/monkey/monkey290.jpg,monkey,6,6
2,D:\AI\Classification-Pipeline\data/dog/dog19.jpg,dog,2,2
3,D:\AI\Classification-Pipeline\data/lion/lion58.jpg,lion,5,5
4,D:\AI\Classification-Pipeline\data/horse/horse258.jpg,horse,3,3
5,D:\AI\Classification-Pipeline\data/cat/cat128.jpg,cat,1,1
6,D:\AI\Classification-Pipeline\data/plane/plane160.jpg,plane,7,7
7,D:\AI\Classification-Pipeline\data/camera/camera284.jpg,camera,0,0
8,D:\AI\Classification-Pipeline\data/horse/horse386.jpg,horse,3,3
9,D:\AI\Classification-Pipeline\data/horse/horse421.jpg,horse,3,3
10,D:\AI\Classification-Pipeline\data/insects/insects274.jpg,insects,4,4
11,D:\AI\Classification-Pipeline\data/cat/cat483.jpg,cat,1,1
12,D:\AI\Classification-Pipeline\data/camera/camera6.jpg,camera,0,0
13,D:\AI\Classification-Pipeline\data/dog/dog362.jpg,dog,2,2
14,D:\AI\Classification-Pipeline\data/tiger/tiger196.jpg,tiger,8,8
15,D:\AI\Classification-Pipeline\data/camera/camera330.jpg,camera,0,0
16,D:\AI\Classification-Pipeline\data/lion/lion155.jpg,lion,5,5
17,D:\AI\Classification-Pipeline\data/camera/camera383.jpg,camera,0,0
18,D:\AI\Classification-Pipeline\data/dog/dog395.jpg,dog,2,2
19,D:\AI\Classification-Pipeline\data/monkey/monkey98.jpg,monkey,6,6
20,D:\AI\Classification-Pipeline\data/monkey/monkey136.jpg,monkey,6,6
21,D:\AI\Classification-Pipeline\data/monkey/monkey430.jpg,monkey,6,6
22,D:\AI\Classification-Pipeline\data/tiger/tiger314.jpg,tiger,8,8
23,D:\AI\Classification-Pipeline\data/tree/tree311.jpg,tree,9,9
24,D:\AI\Classification-Pipeline\data/lion/lion172.jpg,lion,5,5
25,D:\AI\Classification-Pipeline\data/lion/lion437.jpg,lion,5,5
26,D:\AI\Classification-Pipeline\data/tiger/tiger42.jpg,tiger,8,8
27,D:\AI\Classification-Pipeline\data/tiger/tiger145.jpg,tiger,8,8
28,D:\AI\Classification-Pipeline\data/lion/lion332.jpg,lion,5,5
29,D:\AI\Classification-Pipeline\data/camera/camera412.jpg,camera,0,0
30,D:\AI\Classification-Pipeline\data/tree/tree173.jpg,tree,9,9
31,D:\AI\Classification-Pipeline\data/monkey/monkey192.jpg,monkey,6,6
32,D:\AI\Classification-Pipeline\data/insects/insects400.jpg,insects,4,4
33,D:\AI\Classification-Pipeline\data/insects/insects243.jpg,insects,4,4
34,D:\AI\Classification-Pipeline\data/plane/plane471.jpg,plane,7,7
35,D:\AI\Classification-Pipeline\data/horse/horse133.jpg,horse,3,3
36,D:\AI\Classification-Pipeline\data/cat/cat263.jpg,cat,1,1
37,D:\AI\Classification-Pipeline\data/cat/cat381.jpg,cat,1,1
38,D:\AI\Classification-Pipeline\data/cat/cat330.jpg,cat,1,1
39,D:\AI\Classification-Pipeline\data/monkey/monkey321.jpg,monkey,6,6
40,D:\AI\Classification-Pipeline\data/tiger/tiger223.jpg,tiger,8,8
41,D:\AI\Classification-Pipeline\data/horse/horse340.jpg,horse,3,3
42,D:\AI\Classification-Pipeline\data/plane/plane405.jpg,plane,7,7
43,D:\AI\Classification-Pipeline\data/tiger/tiger299.jpg,tiger,8,8
44,D:\AI\Classification-Pipeline\data/tree/tree358.jpg,tree,9,9
45,D:\AI\Classification-Pipeline\data/tree/tree431.jpg,tree,9,9
46,D:\AI\Classification-Pipeline\data/monkey/monkey334.jpg,monkey,6,6
47,D:\AI\Classification-Pipeline\data/plane/plane131.jpg,plane,7,7
48,D:\AI\Classification-Pipeline\data/camera/camera342.jpg,camera,0,0
49,D:\AI\Classification-Pipeline\data/lion/lion203.jpg,lion,5,5
50,D:\AI\Classification-Pipeline\data/monkey/monkey288.jpg,monkey,6,6
51,D:\AI\Classification-Pipeline\data/insects/insects245.jpg,insects,4,4
52,D:\AI\Classification-Pipeline\data/insects/insects304.jpg,insects,4,4
53,D:\AI\Classification-Pipeline\data/tiger/tiger403.jpg,tiger,8,8
54,D:\AI\Classification-Pipeline\data/camera/camera60.jpg,camera,0,0
55,D:\AI\Classification-Pipeline\data/tiger/tiger379.jpg,tiger,8,8
56,D:\AI\Classification-Pipeline\data/dog/dog468.jpg,dog,2,2
57,D:\AI\Classification-Pipeline\data/insects/insects478.jpg,insects,4,4
58,D:\AI\Classification-Pipeline\data/tree/tree336.jpg,tree,9,9
59,D:\AI\Classification-Pipeline\data/monkey/monkey436.jpg,monkey,6,6
60,D:\AI\Classification-Pipeline\data/monkey/monkey58.jpg,monkey,6,6
61,D:\AI\Classification-Pipeline\data/dog/dog243.jpg,dog,2,2
62,D:\AI\Classification-Pipeline\data/tiger/tiger83.jpg,tiger,8,8
63,D:\AI\Classification-Pipeline\data/lion/lion86.jpg,lion,5,5
64,D:\AI\Classification-Pipeline\data/tiger/tiger424.jpg,tiger,8,8
65,D:\AI\Classification-Pipeline\data/horse/horse155.jpg,horse,3,3
66,D:\AI\Classification-Pipeline\data/tiger/tiger147.jpg,tiger,8,8
67,D:\AI\Classification-Pipeline\data/monkey/monkey259.jpg,monkey,6,6
68,D:\AI\Classification-Pipeline\data/camera/camera96.jpg,camera,0,0
69,D:\AI\Classification-Pipeline\data/tiger/tiger250.jpg,tiger,8,8
70,D:\AI\Classification-Pipeline\data/lion/lion202.jpg,lion,5,5
71,D:\AI\Classification-Pipeline\data/tree/tree160.jpg,tree,9,9
72,D:\AI\Classification-Pipeline\data/insects/insects354.jpg,insects,4,4
73,D:\AI\Classification-Pipeline\data/cat/cat322.jpg,cat,1,1
74,D:\AI\Classification-Pipeline\data/tree/tree471.jpg,tree,9,9
75,D:\AI\Classification-Pipeline\data/tree/tree319.jpg,tree,9,9
76,D:\AI\Classification-Pipeline\data/dog/dog226.jpg,dog,2,2
77,D:\AI\Classification-Pipeline\data/dog/dog311.jpg,dog,2,2
78,D:\AI\Classification-Pipeline\data/lion/lion215.jpg,lion,5,5
79,D:\AI\Classification-Pipeline\data/monkey/monkey158.jpg,monkey,6,6
80,D:\AI\Classification-Pipeline\data/camera/camera295.jpg,camera,0,0
81,D:\AI\Classification-Pipeline\data/camera/camera332.jpg,camera,0,0
82,D:\AI\Classification-Pipeline\data/plane/plane448.jpg,plane,7,7
83,D:\AI\Classification-Pipeline\data/horse/horse343.jpg,horse,3,3
84,D:\AI\Classification-Pipeline\data/horse/horse480.jpg,horse,3,3
85,D:\AI\Classification-Pipeline\data/horse/horse8.jpg,horse,3,3
86,D:\AI\Classification-Pipeline\data/camera/camera89.jpg,camera,0,0
87,D:\AI\Classification-Pipeline\data/lion/lion316.jpg,lion,5,5
88,D:\AI\Classification-Pipeline\data/cat/cat78.jpg,cat,1,1
89,D:\AI\Classification-Pipeline\data/insects/insects363.jpg,insects,4,4
90,D:\AI\Classification-Pipeline\data/dog/dog110.jpg,dog,2,2
91,D:\AI\Classification-Pipeline\data/tiger/tiger140.jpg,tiger,8,8
92,D:\AI\Classification-Pipeline\data/tiger/tiger268.jpg,tiger,8,8
93,D:\AI\Classification-Pipeline\data/horse/horse288.jpg,horse,3,3
94,D:\AI\Classification-Pipeline\data/horse/horse157.jpg,horse,3,3
95,D:\AI\Classification-Pipeline\data/horse/horse195.jpg,horse,3,3
96,D:\AI\Classification-Pipeline\data/tree/tree368.jpg,tree,9,9
97,D:\AI\Classification-Pipeline\data/tiger/tiger237.jpg,tiger,8,8
98,D:\AI\Classification-Pipeline\data/tiger/tiger241.jpg,tiger,8,8
99,D:\AI\Classification-Pipeline\data/horse/horse440.jpg,horse,3,3
100,D:\AI\Classification-Pipeline\data/dog/dog25.jpg,dog,2,2
101,D:\AI\Classification-Pipeline\data/horse/horse378.jpg,horse,3,3
102,D:\AI\Classification-Pipeline\data/camera/camera325.jpg,camera,0,0
103,D:\AI\Classification-Pipeline\data/tree/tree222.jpg,tree,9,9
104,D:\AI\Classification-Pipeline\data/insects/insects357.jpg,insects,4,4
105,D:\AI\Classification-Pipeline\data/camera/camera10.jpg,camera,0,0
106,D:\AI\Classification-Pipeline\data/dog/dog494.jpg,dog,2,2
107,D:\AI\Classification-Pipeline\data/camera/camera290.jpg,camera,0,0
108,D:\AI\Classification-Pipeline\data/tree/tree349.jpg,tree,9,9
109,D:\AI\Classification-Pipeline\data/dog/dog437.jpg,dog,2,2
110,D:\AI\Classification-Pipeline\data/lion/lion463.jpg,lion,5,5
111,D:\AI\Classification-Pipeline\data/insects/insects261.jpg,insects,4,4
112,D:\AI\Classification-Pipeline\data/tree/tree318.jpg,tree,9,9
113,D:\AI\Classification-Pipeline\data/lion/lion76.jpg,lion,5,5
114,D:\AI\Classification-Pipeline\data/tree/tree246.jpg,tree,9,9
115,D:\AI\Classification-Pipeline\data/plane/plane97.jpg,plane,7,7
116,D:\AI\Classification-Pipeline\data/insects/insects256.jpg,insects,4,4
117,D:\AI\Classification-Pipeline\data/lion/lion176.jpg,lion,5,5
118,D:\AI\Classification-Pipeline\data/horse/horse437.jpg,horse,3,3
119,D:\AI\Classification-Pipeline\data/cat/cat234.jpg,cat,1,1
120,D:\AI\Classification-Pipeline\data/camera/camera471.jpg,camera,0,0
121,D:\AI\Classification-Pipeline\data/horse/horse129.jpg,horse,3,3
122,D:\AI\Classification-Pipeline\data/insects/insects62.jpg,insects,4,4
123,D:\AI\Classification-Pipeline\data/insects/insects9.jpg,insects,4,4
124,D:\AI\Classification-Pipeline\data/camera/camera381.jpg,camera,0,0
125,D:\AI\Classification-Pipeline\data/dog/dog160.jpg,dog,2,2
126,D:\AI\Classification-Pipeline\data/lion/lion94.jpg,lion,5,5
127,D:\AI\Classification-Pipeline\data/monkey/monkey354.jpg,monkey,6,6
128,D:\AI\Classification-Pipeline\data/horse/horse399.jpg,horse,3,3
129,D:\AI\Classification-Pipeline\data/horse/horse196.jpg,horse,3,3
130,D:\AI\Classification-Pipeline\data/tiger/tiger453.jpg,tiger,8,8
131,D:\AI\Classification-Pipeline\data/camera/camera460.jpg,camera,0,0
132,D:\AI\Classification-Pipeline\data/insects/insects264.jpg,insects,4,4
133,D:\AI\Classification-Pipeline\data/lion/lion19.jpg,lion,5,5
134,D:\AI\Classification-Pipeline\data/insects/insects341.jpg,insects,4,4
135,D:\AI\Classification-Pipeline\data/dog/dog183.jpg,dog,2,2
136,D:\AI\Classification-Pipeline\data/camera/camera243.jpg,camera,0,0
137,D:\AI\Classification-Pipeline\data/lion/lion271.jpg,lion,5,5
138,D:\AI\Classification-Pipeline\data/lion/lion376.jpg,lion,5,5
139,D:\AI\Classification-Pipeline\data/monkey/monkey458.jpg,monkey,6,6
140,D:\AI\Classification-Pipeline\data/camera/camera268.jpg,camera,0,0
141,D:\AI\Classification-Pipeline\data/tree/tree477.jpg,tree,9,9
142,D:\AI\Classification-Pipeline\data/monkey/monkey400.jpg,monkey,6,6
143,D:\AI\Classification-Pipeline\data/tree/tree147.jpg,tree,9,9
144,D:\AI\Classification-Pipeline\data/tree/tree36.jpg,tree,9,9
145,D:\AI\Classification-Pipeline\data/camera/camera477.jpg,camera,0,0
146,D:\AI\Classification-Pipeline\data/lion/lion459.jpg,lion,5,5
147,D:\AI\Classification-Pipeline\data/tree/tree438.jpg,tree,9,9
148,D:\AI\Classification-Pipeline\data/tree/tree430.jpg,tree,9,9
149,D:\AI\Classification-Pipeline\data/camera/camera409.jpg,camera,0,0
150,D:\AI\Classification-Pipeline\data/tiger/tiger243.jpg,tiger,8,8
151,D:\AI\Classification-Pipeline\data/tiger/tiger420.jpg,tiger,8,8
152,D:\AI\Classification-Pipeline\data/tree/tree92.jpg,tree,9,9
153,D:\AI\Classification-Pipeline\data/insects/insects182.jpg,insects,4,4
154,D:\AI\Classification-Pipeline\data/cat/cat356.jpg,cat,1,1
155,D:\AI\Classification-Pipeline\data/lion/lion95.jpg,lion,5,5
156,D:\AI\Classification-Pipeline\data/monkey/monkey246.jpg,monkey,6,6
157,D:\AI\Classification-Pipeline\data/monkey/monkey467.jpg,monkey,6,6
158,D:\AI\Classification-Pipeline\data/dog/dog476.jpg,dog,2,2
159,D:\AI\Classification-Pipeline\data/tree/tree381.jpg,tree,9,9
160,D:\AI\Classification-Pipeline\data/tree/tree321.jpg,tree,9,9
161,D:\AI\Classification-Pipeline\data/lion/lion124.jpg,lion,5,5
162,D:\AI\Classification-Pipeline\data/camera/camera13.jpg,camera,0,0
163,D:\AI\Classification-Pipeline\data/tiger/tiger208.jpg,tiger,8,8
164,D:\AI\Classification-Pipeline\data/camera/camera404.jpg,camera,0,0
165,D:\AI\Classification-Pipeline\data/lion/lion402.jpg,lion,5,5
166,D:\AI\Classification-Pipeline\data/plane/plane443.jpg,plane,7,7
167,D:\AI\Classification-Pipeline\data/tree/tree212.jpg,tree,9,9
168,D:\AI\Classification-Pipeline\data/tiger/tiger435.jpg,tiger,8,8
169,D:\AI\Classification-Pipeline\data/horse/horse313.jpg,horse,3,3
170,D:\AI\Classification-Pipeline\data/dog/dog4.jpg,dog,2,2
171,D:\AI\Classification-Pipeline\data/cat/cat42.jpg,cat,1,1
172,D:\AI\Classification-Pipeline\data/insects/insects435.jpg,insects,4,4
173,D:\AI\Classification-Pipeline\data/cat/cat174.jpg,cat,1,1
174,D:\AI\Classification-Pipeline\data/tiger/tiger398.jpg,tiger,8,8
175,D:\AI\Classification-Pipeline\data/tiger/tiger31.jpg,tiger,8,8
176,D:\AI\Classification-Pipeline\data/camera/camera484.jpg,camera,0,0
177,D:\AI\Classification-Pipeline\data/lion/lion268.jpg,lion,5,5
178,D:\AI\Classification-Pipeline\data/insects/insects246.jpg,insects,4,4
179,D:\AI\Classification-Pipeline\data/tree/tree429.jpg,tree,9,9
180,D:\AI\Classification-Pipeline\data/camera/camera499.jpg,camera,0,0
181,D:\AI\Classification-Pipeline\data/tiger/tiger414.jpg,tiger,8,8
182,D:\AI\Classification-Pipeline\data/horse/horse482.jpg,horse,3,3
183,D:\AI\Classification-Pipeline\data/plane/plane159.jpg,plane,7,7
184,D:\AI\Classification-Pipeline\data/tiger/tiger264.jpg,tiger,8,8
185,D:\AI\Classification-Pipeline\data/camera/camera337.jpg,camera,0,0
186,D:\AI\Classification-Pipeline\data/monkey/monkey186.jpg,monkey,6,6
187,D:\AI\Classification-Pipeline\data/lion/lion20.jpg,lion,5,5
188,D:\AI\Classification-Pipeline\data/tree/tree402.jpg,tree,9,9
189,D:\AI\Classification-Pipeline\data/plane/plane407.jpg,plane,7,7
190,D:\AI\Classification-Pipeline\data/cat/cat130.jpg,cat,1,1
191,D:\AI\Classification-Pipeline\data/insects/insects431.jpg,insects,4,4
192,D:\AI\Classification-Pipeline\data/lion/lion21.jpg,lion,5,5
193,D:\AI\Classification-Pipeline\data/insects/insects204.jpg,insects,4,4
194,D:\AI\Classification-Pipeline\data/dog/dog385.jpg,dog,2,2
195,D:\AI\Classification-Pipeline\data/tiger/tiger115.jpg,tiger,8,8
196,D:\AI\Classification-Pipeline\data/tiger/tiger496.jpg,tiger,8,8
197,D:\AI\Classification-Pipeline\data/plane/plane447.jpg,plane,7,7
198,D:\AI\Classification-Pipeline\data/plane/plane345.jpg,plane,7,7
199,D:\AI\Classification-Pipeline\data/tree/tree140.jpg,tree,9,9
200,D:\AI\Classification-Pipeline\data/insects/insects33.jpg,insects,4,4
201,D:\AI\Classification-Pipeline\data/lion/lion290.jpg,lion,5,5
202,D:\AI\Classification-Pipeline\data/cat/cat25.jpg,cat,1,1
203,D:\AI\Classification-Pipeline\data/monkey/monkey454.jpg,monkey,6,6
204,D:\AI\Classification-Pipeline\data/tiger/tiger278.jpg,tiger,8,8
205,D:\AI\Classification-Pipeline\data/plane/plane58.jpg,plane,7,7
206,D:\AI\Classification-Pipeline\data/plane/plane151.jpg,plane,7,7
207,D:\AI\Classification-Pipeline\data/camera/camera271.jpg,camera,0,0
208,D:\AI\Classification-Pipeline\data/tiger/tiger387.jpg,tiger,8,8
209,D:\AI\Classification-Pipeline\data/lion/lion104.jpg,lion,5,5
210,D:\AI\Classification-Pipeline\data/cat/cat344.jpg,cat,1,1
211,D:\AI\Classification-Pipeline\data/tiger/tiger142.jpg,tiger,8,8
212,D:\AI\Classification-Pipeline\data/monkey/monkey79.jpg,monkey,6,6
213,D:\AI\Classification-Pipeline\data/plane/plane482.jpg,plane,7,7
214,D:\AI\Classification-Pipeline\data/monkey/monkey488.jpg,monkey,6,6
215,D:\AI\Classification-Pipeline\data/insects/insects89.jpg,insects,4,4
216,D:\AI\Classification-Pipeline\data/tiger/tiger397.jpg,tiger,8,8
217,D:\AI\Classification-Pipeline\data/insects/insects170.jpg,insects,4,4
218,D:\AI\Classification-Pipeline\data/plane/plane235.jpg,plane,7,7
219,D:\AI\Classification-Pipeline\data/dog/dog49.jpg,dog,2,2
220,D:\AI\Classification-Pipeline\data/tiger/tiger315.jpg,tiger,8,8
221,D:\AI\Classification-Pipeline\data/insects/insects92.jpg,insects,4,4
222,D:\AI\Classification-Pipeline\data/cat/cat27.jpg,cat,1,1
223,D:\AI\Classification-Pipeline\data/plane/plane177.jpg,plane,7,7
224,D:\AI\Classification-Pipeline\data/dog/dog386.jpg,dog,2,2
225,D:\AI\Classification-Pipeline\data/monkey/monkey440.jpg,monkey,6,6
226,D:\AI\Classification-Pipeline\data/dog/dog116.jpg,dog,2,2
227,D:\AI\Classification-Pipeline\data/monkey/monkey150.jpg,monkey,6,6
228,D:\AI\Classification-Pipeline\data/tiger/tiger456.jpg,tiger,8,8
229,D:\AI\Classification-Pipeline\data/camera/camera181.jpg,camera,0,0
230,D:\AI\Classification-Pipeline\data/cat/cat370.jpg,cat,1,1
231,D:\AI\Classification-Pipeline\data/plane/plane487.jpg,plane,7,7
232,D:\AI\Classification-Pipeline\data/dog/dog221.jpg,dog,2,2
233,D:\AI\Classification-Pipeline\data/cat/cat26.jpg,cat,1,1
234,D:\AI\Classification-Pipeline\data/horse/horse319.jpg,horse,3,3
235,D:\AI\Classification-Pipeline\data/cat/cat200.jpg,cat,1,1
236,D:\AI\Classification-Pipeline\data/lion/lion456.jpg,lion,5,5
237,D:\AI\Classification-Pipeline\data/cat/cat444.jpg,cat,1,1
238,D:\AI\Classification-Pipeline\data/insects/insects319.jpg,insects,4,4
239,D:\AI\Classification-Pipeline\data/cat/cat466.jpg,cat,1,1
240,D:\AI\Classification-Pipeline\data/cat/cat39.jpg,cat,1,1
241,D:\AI\Classification-Pipeline\data/tiger/tiger423.jpg,tiger,8,8
242,D:\AI\Classification-Pipeline\data/horse/horse62.jpg,horse,3,3
243,D:\AI\Classification-Pipeline\data/tree/tree132.jpg,tree,9,9
244,D:\AI\Classification-Pipeline\data/horse/horse332.jpg,horse,3,3
245,D:\AI\Classification-Pipeline\data/lion/lion263.jpg,lion,5,5
246,D:\AI\Classification-Pipeline\data/horse/horse362.jpg,horse,3,3
247,D:\AI\Classification-Pipeline\data/tiger/tiger141.jpg,tiger,8,8
248,D:\AI\Classification-Pipeline\data/plane/plane13.jpg,plane,7,7
249,D:\AI\Classification-Pipeline\data/insects/insects347.jpg,insects,4,4
250,D:\AI\Classification-Pipeline\data/dog/dog259.jpg,dog,2,5
251,D:\AI\Classification-Pipeline\data/lion/lion191.jpg,lion,5,5
252,D:\AI\Classification-Pipeline\data/cat/cat440.jpg,cat,1,1
253,D:\AI\Classification-Pipeline\data/tiger/tiger493.jpg,tiger,8,8
254,D:\AI\Classification-Pipeline\data/dog/dog13.jpg,dog,2,2
255,D:\AI\Classification-Pipeline\data/plane/plane377.jpg,plane,7,7
256,D:\AI\Classification-Pipeline\data/horse/horse456.jpg,horse,3,3
257,D:\AI\Classification-Pipeline\data/tree/tree81.jpg,tree,9,9
258,D:\AI\Classification-Pipeline\data/plane/plane125.jpg,plane,7,7
259,D:\AI\Classification-Pipeline\data/lion/lion145.jpg,lion,5,5
260,D:\AI\Classification-Pipeline\data/tree/tree461.jpg,tree,9,9
261,D:\AI\Classification-Pipeline\data/monkey/monkey221.jpg,monkey,6,6
262,D:\AI\Classification-Pipeline\data/tree/tree300.jpg,tree,9,9
263,D:\AI\Classification-Pipeline\data/dog/dog140.jpg,dog,2,2
264,D:\AI\Classification-Pipeline\data/tree/tree135.jpg,tree,9,9
265,D:\AI\Classification-Pipeline\data/tiger/tiger63.jpg,tiger,8,8
266,D:\AI\Classification-Pipeline\data/plane/plane374.jpg,plane,7,7
267,D:\AI\Classification-Pipeline\data/horse/horse412.jpg,horse,3,3
268,D:\AI\Classification-Pipeline\data/insects/insects13.jpg,insects,4,4
269,D:\AI\Classification-Pipeline\data/cat/cat475.jpg,cat,1,1
270,D:\AI\Classification-Pipeline\data/lion/lion75.jpg,lion,5,5
271,D:\AI\Classification-Pipeline\data/plane/plane51.jpg,plane,7,7
272,D:\AI\Classification-Pipeline\data/plane/plane421.jpg,plane,7,7
273,D:\AI\Classification-Pipeline\data/monkey/monkey441.jpg,monkey,6,6
274,D:\AI\Classification-Pipeline\data/plane/plane500.jpg,plane,7,7
275,D:\AI\Classification-Pipeline\data/horse/horse263.jpg,horse,3,3
276,D:\AI\Classification-Pipeline\data/horse/horse77.jpg,horse,3,3
277,D:\AI\Classification-Pipeline\data/camera/camera189.jpg,camera,0,0
278,D:\AI\Classification-Pipeline\data/insects/insects444.jpg,insects,4,4
279,D:\AI\Classification-Pipeline\data/insects/insects218.jpg,insects,4,4
280,D:\AI\Classification-Pipeline\data/tiger/tiger176.jpg,tiger,8,8
281,D:\AI\Classification-Pipeline\data/camera/camera235.jpg,camera,0,0
282,D:\AI\Classification-Pipeline\data/insects/insects285.jpg,insects,4,4
283,D:\AI\Classification-Pipeline\data/camera/camera387.jpg,camera,0,0
284,D:\AI\Classification-Pipeline\data/horse/horse89.jpg,horse,3,3
285,D:\AI\Classification-Pipeline\data/plane/plane71.jpg,plane,7,7
286,D:\AI\Classification-Pipeline\data/insects/insects316.jpg,insects,4,4
287,D:\AI\Classification-Pipeline\data/lion/lion93.jpg,lion,5,5
288,D:\AI\Classification-Pipeline\data/monkey/monkey446.jpg,monkey,6,6
289,D:\AI\Classification-Pipeline\data/lion/lion307.jpg,lion,5,5
290,D:\AI\Classification-Pipeline\data/plane/plane244.jpg,plane,7,7
291,D:\AI\Classification-Pipeline\data/monkey/monkey112.jpg,monkey,6,6
292,D:\AI\Classification-Pipeline\data/cat/cat185.jpg,cat,1,1
293,D:\AI\Classification-Pipeline\data/dog/dog458.jpg,dog,2,2
294,D:\AI\Classification-Pipeline\data/dog/dog446.jpg,dog,2,2
295,D:\AI\Classification-Pipeline\data/tiger/tiger370.jpg,tiger,8,8
296,D:\AI\Classification-Pipeline\data/cat/cat77.jpg,cat,1,1
297,D:\AI\Classification-Pipeline\data/dog/dog388.jpg,dog,2,2
298,D:\AI\Classification-Pipeline\data/insects/insects362.jpg,insects,4,4
299,D:\AI\Classification-Pipeline\data/plane/plane49.jpg,plane,7,7
300,D:\AI\Classification-Pipeline\data/insects/insects107.jpg,insects,4,4
301,D:\AI\Classification-Pipeline\data/dog/dog155.jpg,dog,2,2
302,D:\AI\Classification-Pipeline\data/horse/horse370.jpg,horse,3,3
303,D:\AI\Classification-Pipeline\data/cat/cat404.jpg,cat,1,1
304,D:\AI\Classification-Pipeline\data/cat/cat193.jpg,cat,1,1
305,D:\AI\Classification-Pipeline\data/horse/horse473.jpg,horse,3,3
306,D:\AI\Classification-Pipeline\data/plane/plane5.jpg,plane,7,7
307,D:\AI\Classification-Pipeline\data/insects/insects265.jpg,insects,4,4
308,D:\AI\Classification-Pipeline\data/insects/insects294.jpg,insects,4,4
309,D:\AI\Classification-Pipeline\data/monkey/monkey138.jpg,monkey,6,6
310,D:\AI\Classification-Pipeline\data/insects/insects293.jpg,insects,4,4
311,D:\AI\Classification-Pipeline\data/monkey/monkey17.jpg,monkey,6,6
312,D:\AI\Classification-Pipeline\data/cat/cat157.jpg,cat,1,1
313,D:\AI\Classification-Pipeline\data/dog/dog215.jpg,dog,2,2
314,D:\AI\Classification-Pipeline\data/lion/lion246.jpg,lion,5,5
315,D:\AI\Classification-Pipeline\data/lion/lion84.jpg,lion,5,5
316,D:\AI\Classification-Pipeline\data/camera/camera41.jpg,camera,0,0
317,D:\AI\Classification-Pipeline\data/tree/tree85.jpg,tree,9,9
318,D:\AI\Classification-Pipeline\data/horse/horse301.jpg,horse,3,3
319,D:\AI\Classification-Pipeline\data/insects/insects26.jpg,insects,4,4
320,D:\AI\Classification-Pipeline\data/cat/cat43.jpg,cat,1,1
321,D:\AI\Classification-Pipeline\data/dog/dog356.jpg,dog,2,2
322,D:\AI\Classification-Pipeline\data/dog/dog434.jpg,dog,2,2
323,D:\AI\Classification-Pipeline\data/tree/tree251.jpg,tree,9,9
324,D:\AI\Classification-Pipeline\data/cat/cat5.jpg,cat,1,1
325,D:\AI\Classification-Pipeline\data/monkey/monkey19.jpg,monkey,6,6
326,D:\AI\Classification-Pipeline\data/camera/camera318.jpg,camera,0,0
327,D:\AI\Classification-Pipeline\data/tiger/tiger256.jpg,tiger,8,8
328,D:\AI\Classification-Pipeline\data/cat/cat97.jpg,cat,1,1
329,D:\AI\Classification-Pipeline\data/tiger/tiger388.jpg,tiger,8,8
330,D:\AI\Classification-Pipeline\data/camera/camera397.jpg,camera,0,0
331,D:\AI\Classification-Pipeline\data/monkey/monkey437.jpg,monkey,6,6
332,D:\AI\Classification-Pipeline\data/tree/tree428.jpg,tree,9,9
333,D:\AI\Classification-Pipeline\data/cat/cat246.jpg,cat,1,1
334,D:\AI\Classification-Pipeline\data/insects/insects380.jpg,insects,4,4
335,D:\AI\Classification-Pipeline\data/tree/tree180.jpg,tree,9,9
336,D:\AI\Classification-Pipeline\data/lion/lion421.jpg,lion,5,5
337,D:\AI\Classification-Pipeline\data/lion/lion306.jpg,lion,5,5
338,D:\AI\Classification-Pipeline\data/plane/plane425.jpg,plane,7,7
339,D:\AI\Classification-Pipeline\data/lion/lion352.jpg,lion,5,5
340,D:\AI\Classification-Pipeline\data/camera/camera345.jpg,camera,0,0
341,D:\AI\Classification-Pipeline\data/dog/dog179.jpg,dog,2,2
342,D:\AI\Classification-Pipeline\data/horse/horse408.jpg,horse,3,3
343,D:\AI\Classification-Pipeline\data/tree/tree397.jpg,tree,9,9
344,D:\AI\Classification-Pipeline\data/lion/lion134.jpg,lion,5,5
345,D:\AI\Classification-Pipeline\data/plane/plane369.jpg,plane,7,7
346,D:\AI\Classification-Pipeline\data/cat/cat76.jpg,cat,1,1
347,D:\AI\Classification-Pipeline\data/insects/insects38.jpg,insects,4,4
348,D:\AI\Classification-Pipeline\data/plane/plane85.jpg,plane,7,7
349,D:\AI\Classification-Pipeline\data/horse/horse226.jpg,horse,3,3
350,D:\AI\Classification-Pipeline\data/camera/camera50.jpg,camera,0,0
351,D:\AI\Classification-Pipeline\data/horse/horse240.jpg,horse,3,3
352,D:\AI\Classification-Pipeline\data/lion/lion254.jpg,lion,5,5
353,D:\AI\Classification-Pipeline\data/dog/dog29.jpg,dog,2,2
354,D:\AI\Classification-Pipeline\data/cat/cat34.jpg,cat,1,1
355,D:\AI\Classification-Pipeline\data/tree/tree44.jpg,tree,9,9
356,D:\AI\Classification-Pipeline\data/lion/lion141.jpg,lion,5,5
357,D:\AI\Classification-Pipeline\data/tiger/tiger64.jpg,tiger,8,8
358,D:\AI\Classification-Pipeline\data/camera/camera375.jpg,camera,0,0
359,D:\AI\Classification-Pipeline\data/lion/lion193.jpg,lion,5,5
360,D:\AI\Classification-Pipeline\data/horse/horse108.jpg,horse,3,3
361,D:\AI\Classification-Pipeline\data/insects/insects284.jpg,insects,4,4
362,D:\AI\Classification-Pipeline\data/plane/plane445.jpg,plane,7,7
363,D:\AI\Classification-Pipeline\data/lion/lion66.jpg,lion,5,5
364,D:\AI\Classification-Pipeline\data/tiger/tiger3.jpg,tiger,8,8
365,D:\AI\Classification-Pipeline\data/lion/lion181.jpg,lion,5,5
366,D:\AI\Classification-Pipeline\data/insects/insects247.jpg,insects,4,4
367,D:\AI\Classification-Pipeline\data/plane/plane346.jpg,plane,7,7
368,D:\AI\Classification-Pipeline\data/plane/plane291.jpg,plane,7,7
369,D:\AI\Classification-Pipeline\data/plane/plane309.jpg,plane,7,7
370,D:\AI\Classification-Pipeline\data/camera/camera208.jpg,camera,0,0
371,D:\AI\Classification-Pipeline\data/plane/plane30.jpg,plane,7,7
372,D:\AI\Classification-Pipeline\data/horse/horse71.jpg,horse,3,3
373,D:\AI\Classification-Pipeline\data/cat/cat468.jpg,cat,1,1
374,D:\AI\Classification-Pipeline\data/dog/dog119.jpg,dog,2,2
375,D:\AI\Classification-Pipeline\data/monkey/monkey276.jpg,monkey,6,6
376,D:\AI\Classification-Pipeline\data/insects/insects259.jpg,insects,4,4
377,D:\AI\Classification-Pipeline\data/monkey/monkey155.jpg,monkey,6,6
378,D:\AI\Classification-Pipeline\data/camera/camera326.jpg,camera,0,0
379,D:\AI\Classification-Pipeline\data/insects/insects495.jpg,insects,4,4
380,D:\AI\Classification-Pipeline\data/monkey/monkey375.jpg,monkey,6,6
381,D:\AI\Classification-Pipeline\data/insects/insects480.jpg,insects,4,4
382,D:\AI\Classification-Pipeline\data/tree/tree14.jpg,tree,9,9
383,D:\AI\Classification-Pipeline\data/lion/lion57.jpg,lion,5,5
384,D:\AI\Classification-Pipeline\data/tree/tree243.jpg,tree,9,9
385,D:\AI\Classification-Pipeline\data/cat/cat131.jpg,cat,1,1
386,D:\AI\Classification-Pipeline\data/dog/dog253.jpg,dog,2,2
387,D:\AI\Classification-Pipeline\data/monkey/monkey297.jpg,monkey,6,6
388,D:\AI\Classification-Pipeline\data/cat/cat275.jpg,cat,1,1
389,D:\AI\Classification-Pipeline\data/lion/lion154.jpg,lion,5,5
390,D:\AI\Classification-Pipeline\data/tiger/tiger108.jpg,tiger,8,8
391,D:\AI\Classification-Pipeline\data/monkey/monkey134.jpg,monkey,6,6
392,D:\AI\Classification-Pipeline\data/monkey/monkey200.jpg,monkey,6,6
393,D:\AI\Classification-Pipeline\data/plane/plane105.jpg,plane,7,7
394,D:\AI\Classification-Pipeline\data/tree/tree445.jpg,tree,9,9
395,D:\AI\Classification-Pipeline\data/lion/lion218.jpg,lion,5,5
396,D:\AI\Classification-Pipeline\data/cat/cat396.jpg,cat,1,1
397,D:\AI\Classification-Pipeline\data/cat/cat401.jpg,cat,1,1
398,D:\AI\Classification-Pipeline\data/camera/camera292.jpg,camera,0,0
399,D:\AI\Classification-Pipeline\data/lion/lion17.jpg,lion,5,5
400,D:\AI\Classification-Pipeline\data/tree/tree255.jpg,tree,9,9
401,D:\AI\Classification-Pipeline\data/cat/cat56.jpg,cat,1,1
402,D:\AI\Classification-Pipeline\data/plane/plane166.jpg,plane,7,7
403,D:\AI\Classification-Pipeline\data/plane/plane382.jpg,plane,7,7
404,D:\AI\Classification-Pipeline\data/tree/tree354.jpg,tree,9,9
405,D:\AI\Classification-Pipeline\data/monkey/monkey227.jpg,monkey,6,6
406,D:\AI\Classification-Pipeline\data/horse/horse92.jpg,horse,3,3
407,D:\AI\Classification-Pipeline\data/camera/camera365.jpg,camera,0,0
408,D:\AI\Classification-Pipeline\data/insects/insects151.jpg,insects,4,4
409,D:\AI\Classification-Pipeline\data/lion/lion477.jpg,lion,5,5
410,D:\AI\Classification-Pipeline\data/monkey/monkey127.jpg,monkey,6,6
411,D:\AI\Classification-Pipeline\data/tree/tree312.jpg,tree,9,9
412,D:\AI\Classification-Pipeline\data/insects/insects404.jpg,insects,4,4
413,D:\AI\Classification-Pipeline\data/monkey/monkey179.jpg,monkey,6,6
414,D:\AI\Classification-Pipeline\data/tiger/tiger111.jpg,tiger,8,8
415,D:\AI\Classification-Pipeline\data/insects/insects436.jpg,insects,4,4
416,D:\AI\Classification-Pipeline\data/dog/dog387.jpg,dog,2,2
417,D:\AI\Classification-Pipeline\data/tree/tree386.jpg,tree,9,9
418,D:\AI\Classification-Pipeline\data/plane/plane493.jpg,plane,7,7
419,D:\AI\Classification-Pipeline\data/monkey/monkey353.jpg,monkey,6,6
420,D:\AI\Classification-Pipeline\data/horse/horse390.jpg,horse,3,3
421,D:\AI\Classification-Pipeline\data/lion/lion62.jpg,lion,5,5
422,D:\AI\Classification-Pipeline\data/plane/plane223.jpg,plane,7,7
423,D:\AI\Classification-Pipeline\data/cat/cat437.jpg,cat,1,1
424,D:\AI\Classification-Pipeline\data/insects/insects277.jpg,insects,4,4
425,D:\AI\Classification-Pipeline\data/camera/camera280.jpg,camera,0,0
426,D:\AI\Classification-Pipeline\data/camera/camera194.jpg,camera,0,0
427,D:\AI\Classification-Pipeline\data/monkey/monkey346.jpg,monkey,6,6
428,D:\AI\Classification-Pipeline\data/plane/plane117.jpg,plane,7,7
429,D:\AI\Classification-Pipeline\data/cat/cat112.jpg,cat,1,1
430,D:\AI\Classification-Pipeline\data/plane/plane332.jpg,plane,7,7
431,D:\AI\Classification-Pipeline\data/lion/lion113.jpg,lion,5,5
432,D:\AI\Classification-Pipeline\data/cat/cat18.jpg,cat,1,1
433,D:\AI\Classification-Pipeline\data/tiger/tiger120.jpg,tiger,8,8
434,D:\AI\Classification-Pipeline\data/tiger/tiger47.jpg,tiger,8,8
435,D:\AI\Classification-Pipeline\data/insects/insects239.jpg,insects,4,4
436,D:\AI\Classification-Pipeline\data/cat/cat138.jpg,cat,1,1
437,D:\AI\Classification-Pipeline\data/insects/insects338.jpg,insects,4,4
438,D:\AI\Classification-Pipeline\data/lion/lion381.jpg,lion,5,5
439,D:\AI\Classification-Pipeline\data/insects/insects196.jpg,insects,4,4
440,D:\AI\Classification-Pipeline\data/cat/cat242.jpg,cat,1,1
441,D:\AI\Classification-Pipeline\data/tiger/tiger287.jpg,tiger,8,8
442,D:\AI\Classification-Pipeline\data/dog/dog333.jpg,dog,2,2
443,D:\AI\Classification-Pipeline\data/tiger/tiger49.jpg,tiger,8,8
444,D:\AI\Classification-Pipeline\data/tree/tree26.jpg,tree,9,9
445,D:\AI\Classification-Pipeline\data/insects/insects324.jpg,insects,4,4
446,D:\AI\Classification-Pipeline\data/cat/cat316.jpg,cat,1,1
447,D:\AI\Classification-Pipeline\data/tree/tree112.jpg,tree,9,9
448,D:\AI\Classification-Pipeline\data/tree/tree99.jpg,tree,9,9
449,D:\AI\Classification-Pipeline\data/lion/lion335.jpg,lion,5,5
450,D:\AI\Classification-Pipeline\data/camera/camera348.jpg,camera,0,0
451,D:\AI\Classification-Pipeline\data/camera/camera171.jpg,camera,0,0
452,D:\AI\Classification-Pipeline\data/camera/camera251.jpg,camera,0,0
453,D:\AI\Classification-Pipeline\data/dog/dog416.jpg,dog,2,2
454,D:\AI\Classification-Pipeline\data/dog/dog346.jpg,dog,2,5
455,D:\AI\Classification-Pipeline\data/insects/insects45.jpg,insects,4,4
456,D:\AI\Classification-Pipeline\data/insects/insects333.jpg,insects,4,4
457,D:\AI\Classification-Pipeline\data/insects/insects1.jpg,insects,4,4
458,D:\AI\Classification-Pipeline\data/monkey/monkey340.jpg,monkey,6,6
459,D:\AI\Classification-Pipeline\data/cat/cat267.jpg,cat,1,1
460,D:\AI\Classification-Pipeline\data/tiger/tiger484.jpg,tiger,8,8
461,D:\AI\Classification-Pipeline\data/camera/camera147.jpg,camera,0,0
462,D:\AI\Classification-Pipeline\data/cat/cat83.jpg,cat,1,1
463,D:\AI\Classification-Pipeline\data/monkey/monkey302.jpg,monkey,6,6
464,D:\AI\Classification-Pipeline\data/plane/plane323.jpg,plane,7,7
465,D:\AI\Classification-Pipeline\data/camera/camera216.jpg,camera,0,0
466,D:\AI\Classification-Pipeline\data/lion/lion117.jpg,lion,5,5
467,D:\AI\Classification-Pipeline\data/camera/camera408.jpg,camera,0,0
468,D:\AI\Classification-Pipeline\data/insects/insects52.jpg,insects,4,4
469,D:\AI\Classification-Pipeline\data/camera/camera378.jpg,camera,0,0
470,D:\AI\Classification-Pipeline\data/cat/cat101.jpg,cat,1,1
471,D:\AI\Classification-Pipeline\data/camera/camera336.jpg,camera,0,0
472,D:\AI\Classification-Pipeline\data/insects/insects371.jpg,insects,4,4
473,D:\AI\Classification-Pipeline\data/cat/cat391.jpg,cat,1,1
474,D:\AI\Classification-Pipeline\data/monkey/monkey72.jpg,monkey,6,6
475,D:\AI\Classification-Pipeline\data/lion/lion446.jpg,lion,5,5
476,D:\AI\Classification-Pipeline\data/camera/camera363.jpg,camera,0,0
477,D:\AI\Classification-Pipeline\data/tree/tree365.jpg,tree,9,9
478,D:\AI\Classification-Pipeline\data/camera/camera270.jpg,camera,0,0
479,D:\AI\Classification-Pipeline\data/horse/horse265.jpg,horse,3,3
480,D:\AI\Classification-Pipeline\data/horse/horse243.jpg,horse,3,3
481,D:\AI\Classification-Pipeline\data/monkey/monkey163.jpg,monkey,6,6
482,D:\AI\Classification-Pipeline\data/horse/horse72.jpg,horse,3,3
483,D:\AI\Classification-Pipeline\data/tiger/tiger61.jpg,tiger,8,8
484,D:\AI\Classification-Pipeline\data/plane/plane334.jpg,plane,7,7
485,D:\AI\Classification-Pipeline\data/tree/tree388.jpg,tree,9,9
486,D:\AI\Classification-Pipeline\data/cat/cat446.jpg,cat,1,1
487,D:\AI\Classification-Pipeline\data/monkey/monkey25.jpg,monkey,6,6
488,D:\AI\Classification-Pipeline\data/lion/lion302.jpg,lion,5,5
489,D:\AI\Classification-Pipeline\data/lion/lion77.jpg,lion,5,5
490,D:\AI\Classification-Pipeline\data/lion/lion308.jpg,lion,5,5
491,D:\AI\Classification-Pipeline\data/horse/horse338.jpg,horse,3,3
492,D:\AI\Classification-Pipeline\data/monkey/monkey291.jpg,monkey,6,6
493,D:\AI\Classification-Pipeline\data/tree/tree344.jpg,tree,9,9
494,D:\AI\Classification-Pipeline\data/insects/insects51.jpg,insects,4,4
495,D:\AI\Classification-Pipeline\data/tree/tree49.jpg,tree,9,9
496,D:\AI\Classification-Pipeline\data/tiger/tiger15.jpg,tiger,8,8
497,D:\AI\Classification-Pipeline\data/lion/lion129.jpg,lion,5,5
498,D:\AI\Classification-Pipeline\data/lion/lion32.jpg,lion,5,5
499,D:\AI\Classification-Pipeline\data/monkey/monkey491.jpg,monkey,6,6
500,D:\AI\Classification-Pipeline\data/tiger/tiger261.jpg,tiger,8,8
501,D:\AI\Classification-Pipeline\data/dog/dog169.jpg,dog,2,2
502,D:\AI\Classification-Pipeline\data/lion/lion242.jpg,lion,5,5
503,D:\AI\Classification-Pipeline\data/insects/insects429.jpg,insects,4,4
504,D:\AI\Classification-Pipeline\data/insects/insects5.jpg,insects,4,4
505,D:\AI\Classification-Pipeline\data/camera/camera146.jpg,camera,0,0
506,D:\AI\Classification-Pipeline\data/tiger/tiger18.jpg,tiger,8,8
507,D:\AI\Classification-Pipeline\data/horse/horse224.jpg,horse,3,3
508,D:\AI\Classification-Pipeline\data/plane/plane437.jpg,plane,7,7
509,D:\AI\Classification-Pipeline\data/tree/tree447.jpg,tree,9,9
510,D:\AI\Classification-Pipeline\data/horse/horse251.jpg,horse,3,3
511,D:\AI\Classification-Pipeline\data/tiger/tiger301.jpg,tiger,8,8
512,D:\AI\Classification-Pipeline\data/plane/plane20.jpg,plane,7,7
513,D:\AI\Classification-Pipeline\data/horse/horse493.jpg,horse,3,3
514,D:\AI\Classification-Pipeline\data/camera/camera269.jpg,camera,0,0
515,D:\AI\Classification-Pipeline\data/dog/dog364.jpg,dog,2,2
516,D:\AI\Classification-Pipeline\data/tiger/tiger169.jpg,tiger,8,8
517,D:\AI\Classification-Pipeline\data/horse/horse151.jpg,horse,3,3
518,D:\AI\Classification-Pipeline\data/tiger/tiger479.jpg,tiger,8,8
519,D:\AI\Classification-Pipeline\data/camera/camera81.jpg,camera,0,0
520,D:\AI\Classification-Pipeline\data/cat/cat302.jpg,cat,1,1
521,D:\AI\Classification-Pipeline\data/cat/cat477.jpg,cat,1,1
522,D:\AI\Classification-Pipeline\data/lion/lion432.jpg,lion,5,5
523,D:\AI\Classification-Pipeline\data/monkey/monkey335.jpg,monkey,6,6
524,D:\AI\Classification-Pipeline\data/dog/dog300.jpg,dog,2,2
525,D:\AI\Classification-Pipeline\data/monkey/monkey148.jpg,monkey,6,6
526,D:\AI\Classification-Pipeline\data/cat/cat230.jpg,cat,1,1
527,D:\AI\Classification-Pipeline\data/tree/tree137.jpg,tree,9,9
528,D:\AI\Classification-Pipeline\data/horse/horse428.jpg,horse,3,3
529,D:\AI\Classification-Pipeline\data/camera/camera422.jpg,camera,0,0
530,D:\AI\Classification-Pipeline\data/horse/horse486.jpg,horse,3,3
531,D:\AI\Classification-Pipeline\data/insects/insects158.jpg,insects,4,4
532,D:\AI\Classification-Pipeline\data/monkey/monkey482.jpg,monkey,6,6
533,D:\AI\Classification-Pipeline\data/plane/plane28.jpg,plane,7,7
534,D:\AI\Classification-Pipeline\data/tiger/tiger143.jpg,tiger,8,8
535,D:\AI\Classification-Pipeline\data/monkey/monkey474.jpg,monkey,6,6
536,D:\AI\Classification-Pipeline\data/monkey/monkey165.jpg,monkey,6,6
537,D:\AI\Classification-Pipeline\data/tiger/tiger30.jpg,tiger,8,8
538,D:\AI\Classification-Pipeline\data/insects/insects465.jpg,insects,4,4
539,D:\AI\Classification-Pipeline\data/lion/lion238.jpg,lion,5,5
540,D:\AI\Classification-Pipeline\data/dog/dog174.jpg,dog,2,2
541,D:\AI\Classification-Pipeline\data/dog/dog383.jpg,dog,2,2
542,D:\AI\Classification-Pipeline\data/tiger/tiger343.jpg,tiger,8,8
543,D:\AI\Classification-Pipeline\data/horse/horse492.jpg,horse,3,3
544,D:\AI\Classification-Pipeline\data/insects/insects215.jpg,insects,4,4
545,D:\AI\Classification-Pipeline\data/plane/plane456.jpg,plane,7,7
546,D:\AI\Classification-Pipeline\data/cat/cat154.jpg,cat,1,1
547,D:\AI\Classification-Pipeline\data/camera/camera395.jpg,camera,0,0
548,D:\AI\Classification-Pipeline\data/tree/tree194.jpg,tree,9,9
549,D:\AI\Classification-Pipeline\data/lion/lion479.jpg,lion,5,5
550,D:\AI\Classification-Pipeline\data/tree/tree468.jpg,tree,9,9
551,D:\AI\Classification-Pipeline\data/cat/cat258.jpg,cat,1,1
552,D:\AI\Classification-Pipeline\data/camera/camera249.jpg,camera,0,0
553,D:\AI\Classification-Pipeline\data/plane/plane349.jpg,plane,7,7
554,D:\AI\Classification-Pipeline\data/insects/insects494.jpg,insects,4,4
555,D:\AI\Classification-Pipeline\data/dog/dog460.jpg,dog,2,2
556,D:\AI\Classification-Pipeline\data/plane/plane430.jpg,plane,7,7
557,D:\AI\Classification-Pipeline\data/lion/lion305.jpg,lion,5,5
558,D:\AI\Classification-Pipeline\data/monkey/monkey483.jpg,monkey,6,6
559,D:\AI\Classification-Pipeline\data/lion/lion440.jpg,lion,5,5
560,D:\AI\Classification-Pipeline\data/plane/plane136.jpg,plane,7,7
561,D:\AI\Classification-Pipeline\data/dog/dog167.jpg,dog,2,2
562,D:\AI\Classification-Pipeline\data/camera/camera75.jpg,camera,0,0
563,D:\AI\Classification-Pipeline\data/camera/camera144.jpg,camera,0,0
564,D:\AI\Classification-Pipeline\data/plane/plane44.jpg,plane,7,7
565,D:\AI\Classification-Pipeline\data/plane/plane237.jpg,plane,7,7
566,D:\AI\Classification-Pipeline\data/horse/horse57.jpg,horse,3,3
567,D:\AI\Classification-Pipeline\data/cat/cat109.jpg,cat,1,1
568,D:\AI\Classification-Pipeline\data/tree/tree29.jpg,tree,9,9
569,D:\AI\Classification-Pipeline\data/tiger/tiger100.jpg,tiger,8,8
570,D:\AI\Classification-Pipeline\data/horse/horse164.jpg,horse,3,3
571,D:\AI\Classification-Pipeline\data/tiger/tiger345.jpg,tiger,8,8
572,D:\AI\Classification-Pipeline\data/lion/lion136.jpg,lion,5,5
573,D:\AI\Classification-Pipeline\data/monkey/monkey202.jpg,monkey,6,6
574,D:\AI\Classification-Pipeline\data/camera/camera92.jpg,camera,0,0
575,D:\AI\Classification-Pipeline\data/insects/insects7.jpg,insects,4,4
576,D:\AI\Classification-Pipeline\data/tiger/tiger179.jpg,tiger,8,8
577,D:\AI\Classification-Pipeline\data/horse/horse278.jpg,horse,3,3
578,D:\AI\Classification-Pipeline\data/cat/cat453.jpg,cat,1,1
579,D:\AI\Classification-Pipeline\data/lion/lion481.jpg,lion,5,5
580,D:\AI\Classification-Pipeline\data/tiger/tiger161.jpg,tiger,8,8
581,D:\AI\Classification-Pipeline\data/monkey/monkey35.jpg,monkey,6,6
582,D:\AI\Classification-Pipeline\data/camera/camera178.jpg,camera,0,0
583,D:\AI\Classification-Pipeline\data/camera/camera195.jpg,camera,0,0
584,D:\AI\Classification-Pipeline\data/tree/tree52.jpg,tree,9,9
585,D:\AI\Classification-Pipeline\data/tiger/tiger363.jpg,tiger,8,8
586,D:\AI\Classification-Pipeline\data/horse/horse154.jpg,horse,3,3
587,D:\AI\Classification-Pipeline\data/dog/dog310.jpg,dog,2,2
588,D:\AI\Classification-Pipeline\data/cat/cat455.jpg,cat,1,1
589,D:\AI\Classification-Pipeline\data/dog/dog304.jpg,dog,2,2
590,D:\AI\Classification-Pipeline\data/tree/tree257.jpg,tree,9,9
591,D:\AI\Classification-Pipeline\data/cat/cat456.jpg,cat,1,1
592,D:\AI\Classification-Pipeline\data/tree/tree82.jpg,tree,9,9
593,D:\AI\Classification-Pipeline\data/insects/insects73.jpg,insects,4,4
594,D:\AI\Classification-Pipeline\data/plane/plane139.jpg,plane,7,7
595,D:\AI\Classification-Pipeline\data/tree/tree248.jpg,tree,9,9
596,D:\AI\Classification-Pipeline\data/dog/dog247.jpg,dog,2,2
597,D:\AI\Classification-Pipeline\data/insects/insects440.jpg,insects,4,4
598,D:\AI\Classification-Pipeline\data/tree/tree199.jpg,tree,9,9
599,D:\AI\Classification-Pipeline\data/plane/plane275.jpg,plane,7,7
600,D:\AI\Classification-Pipeline\data/lion/lion298.jpg,lion,5,5
601,D:\AI\Classification-Pipeline\data/tiger/tiger352.jpg,tiger,8,8
602,D:\AI\Classification-Pipeline\data/lion/lion500.jpg,lion,5,5
603,D:\AI\Classification-Pipeline\data/horse/horse373.jpg,horse,3,3
604,D:\AI\Classification-Pipeline\data/plane/plane473.jpg,plane,7,7
605,D:\AI\Classification-Pipeline\data/monkey/monkey240.jpg,monkey,6,6
606,D:\AI\Classification-Pipeline\data/cat/cat259.jpg,cat,1,1
607,D:\AI\Classification-Pipeline\data/lion/lion157.jpg,lion,5,5
608,D:\AI\Classification-Pipeline\data/cat/cat137.jpg,cat,1,1
609,D:\AI\Classification-Pipeline\data/lion/lion107.jpg,lion,5,5
610,D:\AI\Classification-Pipeline\data/tiger/tiger418.jpg,tiger,8,8
611,D:\AI\Classification-Pipeline\data/lion/lion275.jpg,lion,5,5
612,D:\AI\Classification-Pipeline\data/dog/dog192.jpg,dog,2,2
613,D:\AI\Classification-Pipeline\data/cat/cat450.jpg,cat,1,1
614,D:\AI\Classification-Pipeline\data/lion/lion2.jpg,lion,5,5
615,D:\AI\Classification-Pipeline\data/camera/camera45.jpg,camera,0,0
616,D:\AI\Classification-Pipeline\data/cat/cat492.jpg,cat,1,1
617,D:\AI\Classification-Pipeline\data/monkey/monkey307.jpg,monkey,6,6
618,D:\AI\Classification-Pipeline\data/dog/dog184.jpg,dog,2,2
619,D:\AI\Classification-Pipeline\data/lion/lion270.jpg,lion,5,5
620,D:\AI\Classification-Pipeline\data/horse/horse53.jpg,horse,3,3
621,D:\AI\Classification-Pipeline\data/horse/horse385.jpg,horse,3,3
622,D:\AI\Classification-Pipeline\data/lion/lion152.jpg,lion,5,5
623,D:\AI\Classification-Pipeline\data/tree/tree467.jpg,tree,9,9
624,D:\AI\Classification-Pipeline\data/plane/plane247.jpg,plane,7,7
625,D:\AI\Classification-Pipeline\data/monkey/monkey427.jpg,monkey,6,6
626,D:\AI\Classification-Pipeline\data/dog/dog87.jpg,dog,2,2
627,D:\AI\Classification-Pipeline\data/dog/dog210.jpg,dog,2,2
628,D:\AI\Classification-Pipeline\data/horse/horse236.jpg,horse,3,3
629,D:\AI\Classification-Pipeline\data/plane/plane144.jpg,plane,7,7
630,D:\AI\Classification-Pipeline\data/monkey/monkey117.jpg,monkey,6,6
631,D:\AI\Classification-Pipeline\data/camera/camera148.jpg,camera,0,0
632,D:\AI\Classification-Pipeline\data/plane/plane350.jpg,plane,7,7
633,D:\AI\Classification-Pipeline\data/horse/horse442.jpg,horse,3,3
634,D:\AI\Classification-Pipeline\data/lion/lion170.jpg,lion,5,5
635,D:\AI\Classification-Pipeline\data/tiger/tiger103.jpg,tiger,8,8
636,D:\AI\Classification-Pipeline\data/lion/lion11.jpg,lion,5,5
637,D:\AI\Classification-Pipeline\data/cat/cat51.jpg,cat,1,1
638,D:\AI\Classification-Pipeline\data/camera/camera151.jpg,camera,0,0
639,D:\AI\Classification-Pipeline\data/lion/lion259.jpg,lion,5,5
640,D:\AI\Classification-Pipeline\data/plane/plane486.jpg,plane,7,7
641,D:\AI\Classification-Pipeline\data/insects/insects368.jpg,insects,4,4
642,D:\AI\Classification-Pipeline\data/tree/tree234.jpg,tree,9,9
643,D:\AI\Classification-Pipeline\data/camera/camera491.jpg,camera,0,0
644,D:\AI\Classification-Pipeline\data/tree/tree411.jpg,tree,9,9
645,D:\AI\Classification-Pipeline\data/dog/dog204.jpg,dog,2,2
646,D:\AI\Classification-Pipeline\data/horse/horse467.jpg,horse,3,3
647,D:\AI\Classification-Pipeline\data/tree/tree281.jpg,tree,9,9
648,D:\AI\Classification-Pipeline\data/monkey/monkey121.jpg,monkey,6,6
649,D:\AI\Classification-Pipeline\data/camera/camera429.jpg,camera,0,0
650,D:\AI\Classification-Pipeline\data/monkey/monkey257.jpg,monkey,6,6
651,D:\AI\Classification-Pipeline\data/camera/camera434.jpg,camera,0,0
652,D:\AI\Classification-Pipeline\data/monkey/monkey327.jpg,monkey,6,6
653,D:\AI\Classification-Pipeline\data/dog/dog11.jpg,dog,2,2
654,D:\AI\Classification-Pipeline\data/camera/camera83.jpg,camera,0,0
655,D:\AI\Classification-Pipeline\data/horse/horse495.jpg,horse,3,3
656,D:\AI\Classification-Pipeline\data/cat/cat470.jpg,cat,1,1
657,D:\AI\Classification-Pipeline\data/plane/plane390.jpg,plane,7,7
658,D:\AI\Classification-Pipeline\data/lion/lion261.jpg,lion,5,5
659,D:\AI\Classification-Pipeline\data/plane/plane42.jpg,plane,7,7
660,D:\AI\Classification-Pipeline\data/dog/dog102.jpg,dog,2,3
661,D:\AI\Classification-Pipeline\data/monkey/monkey105.jpg,monkey,6,6
662,D:\AI\Classification-Pipeline\data/tiger/tiger399.jpg,tiger,8,8
663,D:\AI\Classification-Pipeline\data/monkey/monkey214.jpg,monkey,6,6
664,D:\AI\Classification-Pipeline\data/monkey/monkey96.jpg,monkey,6,6
665,D:\AI\Classification-Pipeline\data/monkey/monkey428.jpg,monkey,6,6
666,D:\AI\Classification-Pipeline\data/tree/tree120.jpg,tree,9,9
667,D:\AI\Classification-Pipeline\data/cat/cat271.jpg,cat,1,1
668,D:\AI\Classification-Pipeline\data/monkey/monkey34.jpg,monkey,6,6
669,D:\AI\Classification-Pipeline\data/tree/tree469.jpg,tree,9,9
670,D:\AI\Classification-Pipeline\data/monkey/monkey44.jpg,monkey,6,6
671,D:\AI\Classification-Pipeline\data/horse/horse100.jpg,horse,3,3
672,D:\AI\Classification-Pipeline\data/dog/dog224.jpg,dog,2,2
673,D:\AI\Classification-Pipeline\data/horse/horse324.jpg,horse,3,3
674,D:\AI\Classification-Pipeline\data/insects/insects355.jpg,insects,4,4
675,D:\AI\Classification-Pipeline\data/horse/horse458.jpg,horse,3,3
676,D:\AI\Classification-Pipeline\data/tiger/tiger121.jpg,tiger,8,8
677,D:\AI\Classification-Pipeline\data/tiger/tiger85.jpg,tiger,8,8
678,D:\AI\Classification-Pipeline\data/insects/insects373.jpg,insects,4,4
679,D:\AI\Classification-Pipeline\data/dog/dog339.jpg,dog,2,2
680,D:\AI\Classification-Pipeline\data/camera/camera69.jpg,camera,0,0
681,D:\AI\Classification-Pipeline\data/tiger/tiger321.jpg,tiger,8,8
682,D:\AI\Classification-Pipeline\data/lion/lion329.jpg,lion,5,5
683,D:\AI\Classification-Pipeline\data/dog/dog423.jpg,dog,2,5
684,D:\AI\Classification-Pipeline\data/lion/lion304.jpg,lion,5,5
685,D:\AI\Classification-Pipeline\data/monkey/monkey383.jpg,monkey,6,6
686,D:\AI\Classification-Pipeline\data/tree/tree133.jpg,tree,9,9
687,D:\AI\Classification-Pipeline\data/tree/tree164.jpg,tree,9,9
688,D:\AI\Classification-Pipeline\data/tiger/tiger37.jpg,tiger,8,8
689,D:\AI\Classification-Pipeline\data/cat/cat350.jpg,cat,1,1
690,D:\AI\Classification-Pipeline\data/camera/camera117.jpg,camera,0,0
691,D:\AI\Classification-Pipeline\data/lion/lion71.jpg,lion,5,5
692,D:\AI\Classification-Pipeline\data/insects/insects352.jpg,insects,4,4
693,D:\AI\Classification-Pipeline\data/insects/insects398.jpg,insects,4,4
694,D:\AI\Classification-Pipeline\data/tree/tree187.jpg,tree,9,9
695,D:\AI\Classification-Pipeline\data/tree/tree217.jpg,tree,9,9
696,D:\AI\Classification-Pipeline\data/camera/camera233.jpg,camera,0,0
697,D:\AI\Classification-Pipeline\data/tiger/tiger239.jpg,tiger,8,8
698,D:\AI\Classification-Pipeline\data/insects/insects3.jpg,insects,4,4
699,D:\AI\Classification-Pipeline\data/cat/cat245.jpg,cat,1,1
700,D:\AI\Classification-Pipeline\data/dog/dog373.jpg,dog,2,2
701,D:\AI\Classification-Pipeline\data/tree/tree437.jpg,tree,9,9
702,D:\AI\Classification-Pipeline\data/camera/camera256.jpg,camera,0,0
703,D:\AI\Classification-Pipeline\data/horse/horse112.jpg,horse,3,3
704,D:\AI\Classification-Pipeline\data/horse/horse310.jpg,horse,3,3
705,D:\AI\Classification-Pipeline\data/dog/dog154.jpg,dog,2,2
706,D:\AI\Classification-Pipeline\data/tiger/tiger190.jpg,tiger,8,8
707,D:\AI\Classification-Pipeline\data/lion/lion449.jpg,lion,5,5
708,D:\AI\Classification-Pipeline\data/cat/cat355.jpg,cat,1,1
709,D:\AI\Classification-Pipeline\data/monkey/monkey425.jpg,monkey,6,6
710,D:\AI\Classification-Pipeline\data/insects/insects462.jpg,insects,4,4
711,D:\AI\Classification-Pipeline\data/camera/camera244.jpg,camera,0,0
712,D:\AI\Classification-Pipeline\data/dog/dog217.jpg,dog,2,3
713,D:\AI\Classification-Pipeline\data/cat/cat474.jpg,cat,1,1
714,D:\AI\Classification-Pipeline\data/monkey/monkey181.jpg,monkey,6,6
715,D:\AI\Classification-Pipeline\data/tree/tree259.jpg,tree,9,9
716,D:\AI\Classification-Pipeline\data/cat/cat92.jpg,cat,1,1
717,D:\AI\Classification-Pipeline\data/dog/dog394.jpg,dog,2,2
718,D:\AI\Classification-Pipeline\data/horse/horse185.jpg,horse,3,3
719,D:\AI\Classification-Pipeline\data/lion/lion85.jpg,lion,5,5
720,D:\AI\Classification-Pipeline\data/horse/horse101.jpg,horse,3,3
721,D:\AI\Classification-Pipeline\data/plane/plane238.jpg,plane,7,7
722,D:\AI\Classification-Pipeline\data/dog/dog365.jpg,dog,2,2
723,D:\AI\Classification-Pipeline\data/dog/dog107.jpg,dog,2,2
724,D:\AI\Classification-Pipeline\data/camera/camera310.jpg,camera,0,0
725,D:\AI\Classification-Pipeline\data/monkey/monkey366.jpg,monkey,6,6
726,D:\AI\Classification-Pipeline\data/cat/cat30.jpg,cat,1,1
727,D:\AI\Classification-Pipeline\data/tiger/tiger45.jpg,tiger,8,8
728,D:\AI\Classification-Pipeline\data/tiger/tiger431.jpg,tiger,8,8
729,D:\AI\Classification-Pipeline\data/monkey/monkey433.jpg,monkey,6,6
730,D:\AI\Classification-Pipeline\data/insects/insects376.jpg,insects,4,4
731,D:\AI\Classification-Pipeline\data/dog/dog26.jpg,dog,2,2
732,D:\AI\Classification-Pipeline\data/cat/cat418.jpg,cat,1,1
733,D:\AI\Classification-Pipeline\data/plane/plane498.jpg,plane,7,7
734,D:\AI\Classification-Pipeline\data/camera/camera341.jpg,camera,0,0
735,D:\AI\Classification-Pipeline\data/plane/plane55.jpg,plane,7,7
736,D:\AI\Classification-Pipeline\data/horse/horse320.jpg,horse,3,3
737,D:\AI\Classification-Pipeline\data/horse/horse90.jpg,horse,3,3
738,D:\AI\Classification-Pipeline\data/tiger/tiger339.jpg,tiger,8,8
739,D:\AI\Classification-Pipeline\data/cat/cat184.jpg,cat,1,1
740,D:\AI\Classification-Pipeline\data/dog/dog222.jpg,dog,2,2
741,D:\AI\Classification-Pipeline\data/camera/camera377.jpg,camera,0,0
742,D:\AI\Classification-Pipeline\data/lion/lion51.jpg,lion,5,5
743,D:\AI\Classification-Pipeline\data/horse/horse449.jpg,horse,3,3
744,D:\AI\Classification-Pipeline\data/dog/dog99.jpg,dog,2,2
745,D:\AI\Classification-Pipeline\data/insects/insects211.jpg,insects,4,4
746,D:\AI\Classification-Pipeline\data/cat/cat348.jpg,cat,1,1
747,D:\AI\Classification-Pipeline\data/camera/camera316.jpg,camera,0,0
748,D:\AI\Classification-Pipeline\data/plane/plane168.jpg,plane,7,7
749,D:\AI\Classification-Pipeline\data/lion/lion296.jpg,lion,5,5
750,D:\AI\Classification-Pipeline\data/tree/tree372.jpg,tree,9,9
751,D:\AI\Classification-Pipeline\data/plane/plane76.jpg,plane,7,7
752,D:\AI\Classification-Pipeline\data/camera/camera414.jpg,camera,0,0
753,D:\AI\Classification-Pipeline\data/monkey/monkey341.jpg,monkey,6,6
754,D:\AI\Classification-Pipeline\data/monkey/monkey175.jpg,monkey,6,6
755,D:\AI\Classification-Pipeline\data/dog/dog45.jpg,dog,2,2
756,D:\AI\Classification-Pipeline\data/horse/horse396.jpg,horse,3,3
757,D:\AI\Classification-Pipeline\data/cat/cat336.jpg,cat,1,1
758,D:\AI\Classification-Pipeline\data/plane/plane354.jpg,plane,7,7
759,D:\AI\Classification-Pipeline\data/horse/horse364.jpg,horse,3,3
760,D:\AI\Classification-Pipeline\data/dog/dog399.jpg,dog,2,2
761,D:\AI\Classification-Pipeline\data/plane/plane251.jpg,plane,7,7
762,D:\AI\Classification-Pipeline\data/lion/lion325.jpg,lion,5,5
763,D:\AI\Classification-Pipeline\data/horse/horse163.jpg,horse,3,3
764,D:\AI\Classification-Pipeline\data/insects/insects205.jpg,insects,4,4
765,D:\AI\Classification-Pipeline\data/insects/insects207.jpg,insects,4,4
766,D:\AI\Classification-Pipeline\data/cat/cat497.jpg,cat,1,1
767,D:\AI\Classification-Pipeline\data/tiger/tiger293.jpg,tiger,8,8
768,D:\AI\Classification-Pipeline\data/tree/tree221.jpg,tree,9,9
769,D:\AI\Classification-Pipeline\data/camera/camera61.jpg,camera,0,0
770,D:\AI\Classification-Pipeline\data/horse/horse471.jpg,horse,3,3
771,D:\AI\Classification-Pipeline\data/cat/cat294.jpg,cat,1,1
772,D:\AI\Classification-Pipeline\data/monkey/monkey370.jpg,monkey,6,6
773,D:\AI\Classification-Pipeline\data/dog/dog390.jpg,dog,2,2
774,D:\AI\Classification-Pipeline\data/lion/lion110.jpg,lion,5,5
775,D:\AI\Classification-Pipeline\data/plane/plane210.jpg,plane,7,7
776,D:\AI\Classification-Pipeline\data/plane/plane322.jpg,plane,7,7
777,D:\AI\Classification-Pipeline\data/lion/lion48.jpg,lion,5,5
778,D:\AI\Classification-Pipeline\data/lion/lion214.jpg,lion,5,5
779,D:\AI\Classification-Pipeline\data/dog/dog18.jpg,dog,2,2
780,D:\AI\Classification-Pipeline\data/insects/insects123.jpg,insects,4,4
781,D:\AI\Classification-Pipeline\data/dog/dog493.jpg,dog,2,2
782,D:\AI\Classification-Pipeline\data/dog/dog86.jpg,dog,2,2
783,D:\AI\Classification-Pipeline\data/cat/cat292.jpg,cat,1,1
784,D:\AI\Classification-Pipeline\data/tree/tree342.jpg,tree,9,9
785,D:\AI\Classification-Pipeline\data/plane/plane16.jpg,plane,7,7
786,D:\AI\Classification-Pipeline\data/cat/cat406.jpg,cat,1,1
787,D:\AI\Classification-Pipeline\data/cat/cat188.jpg,cat,1,1
788,D:\AI\Classification-Pipeline\data/tree/tree64.jpg,tree,9,9
789,D:\AI\Classification-Pipeline\data/camera/camera87.jpg,camera,0,0
790,D:\AI\Classification-Pipeline\data/monkey/monkey473.jpg,monkey,6,6
791,D:\AI\Classification-Pipeline\data/insects/insects4.jpg,insects,4,4
792,D:\AI\Classification-Pipeline\data/tree/tree155.jpg,tree,9,9
793,D:\AI\Classification-Pipeline\data/plane/plane402.jpg,plane,7,7
794,D:\AI\Classification-Pipeline\data/cat/cat235.jpg,cat,1,1
795,D:\AI\Classification-Pipeline\data/dog/dog152.jpg,dog,2,2
796,D:\AI\Classification-Pipeline\data/tiger/tiger422.jpg,tiger,8,8
797,D:\AI\Classification-Pipeline\data/plane/plane188.jpg,plane,7,7
798,D:\AI\Classification-Pipeline\data/dog/dog290.jpg,dog,2,2
799,D:\AI\Classification-Pipeline\data/horse/horse404.jpg,horse,3,3
800,D:\AI\Classification-Pipeline\data/tiger/tiger267.jpg,tiger,8,8
801,D:\AI\Classification-Pipeline\data/tiger/tiger376.jpg,tiger,8,8
802,D:\AI\Classification-Pipeline\data/plane/plane325.jpg,plane,7,7
803,D:\AI\Classification-Pipeline\data/dog/dog466.jpg,dog,2,5
804,D:\AI\Classification-Pipeline\data/tree/tree182.jpg,tree,9,9
805,D:\AI\Classification-Pipeline\data/tree/tree346.jpg,tree,9,9
806,D:\AI\Classification-Pipeline\data/dog/dog44.jpg,dog,2,3
807,D:\AI\Classification-Pipeline\data/plane/plane219.jpg,plane,7,7
808,D:\AI\Classification-Pipeline\data/monkey/monkey480.jpg,monkey,6,6
809,D:\AI\Classification-Pipeline\data/plane/plane319.jpg,plane,7,7
810,D:\AI\Classification-Pipeline\data/plane/plane73.jpg,plane,7,7
811,D:\AI\Classification-Pipeline\data/tree/tree405.jpg,tree,9,9
812,D:\AI\Classification-Pipeline\data/insects/insects391.jpg,insects,4,4
813,D:\AI\Classification-Pipeline\data/insects/insects282.jpg,insects,4,4
814,D:\AI\Classification-Pipeline\data/tree/tree168.jpg,tree,9,9
815,D:\AI\Classification-Pipeline\data/cat/cat471.jpg,cat,1,1
816,D:\AI\Classification-Pipeline\data/plane/plane208.jpg,plane,7,7
817,D:\AI\Classification-Pipeline\data/camera/camera497.jpg,camera,0,0
818,D:\AI\Classification-Pipeline\data/plane/plane427.jpg,plane,7,7
819,D:\AI\Classification-Pipeline\data/horse/horse23.jpg,horse,3,3
820,D:\AI\Classification-Pipeline\data/horse/horse111.jpg,horse,3,3
821,D:\AI\Classification-Pipeline\data/plane/plane197.jpg,plane,7,7
822,D:\AI\Classification-Pipeline\data/tree/tree396.jpg,tree,9,9
823,D:\AI\Classification-Pipeline\data/monkey/monkey76.jpg,monkey,6,6
824,D:\AI\Classification-Pipeline\data/dog/dog473.jpg,dog,2,2
825,D:\AI\Classification-Pipeline\data/dog/dog442.jpg,dog,2,2
826,D:\AI\Classification-Pipeline\data/plane/plane21.jpg,plane,7,7
827,D:\AI\Classification-Pipeline\data/cat/cat201.jpg,cat,1,1
828,D:\AI\Classification-Pipeline\data/horse/horse277.jpg,horse,3,3
829,D:\AI\Classification-Pipeline\data/cat/cat400.jpg,cat,1,1
830,D:\AI\Classification-Pipeline\data/camera/camera446.jpg,camera,0,0
831,D:\AI\Classification-Pipeline\data/monkey/monkey32.jpg,monkey,6,6
832,D:\AI\Classification-Pipeline\data/lion/lion454.jpg,lion,5,5
833,D:\AI\Classification-Pipeline\data/horse/horse488.jpg,horse,3,3
834,D:\AI\Classification-Pipeline\data/horse/horse272.jpg,horse,3,3
835,D:\AI\Classification-Pipeline\data/cat/cat73.jpg,cat,1,5
836,D:\AI\Classification-Pipeline\data/camera/camera110.jpg,camera,0,0
837,D:\AI\Classification-Pipeline\data/tiger/tiger153.jpg,tiger,8,8
838,D:\AI\Classification-Pipeline\data/tiger/tiger280.jpg,tiger,8,8
839,D:\AI\Classification-Pipeline\data/monkey/monkey195.jpg,monkey,6,6
840,D:\AI\Classification-Pipeline\data/lion/lion344.jpg,lion,5,5
841,D:\AI\Classification-Pipeline\data/plane/plane408.jpg,plane,7,7
842,D:\AI\Classification-Pipeline\data/dog/dog412.jpg,dog,2,2
843,D:\AI\Classification-Pipeline\data/cat/cat19.jpg,cat,1,1
844,D:\AI\Classification-Pipeline\data/tiger/tiger325.jpg,tiger,8,8
845,D:\AI\Classification-Pipeline\data/camera/camera179.jpg,camera,0,0
846,D:\AI\Classification-Pipeline\data/dog/dog489.jpg,dog,2,2
847,D:\AI\Classification-Pipeline\data/cat/cat35.jpg,cat,1,1
848,D:\AI\Classification-Pipeline\data/horse/horse317.jpg,horse,3,3
849,D:\AI\Classification-Pipeline\data/tree/tree16.jpg,tree,9,9
850,D:\AI\Classification-Pipeline\data/camera/camera27.jpg,camera,0,0
851,D:\AI\Classification-Pipeline\data/insects/insects309.jpg,insects,4,4
852,D:\AI\Classification-Pipeline\data/tree/tree90.jpg,tree,9,9
853,D:\AI\Classification-Pipeline\data/horse/horse94.jpg,horse,3,3
854,D:\AI\Classification-Pipeline\data/insects/insects138.jpg,insects,4,4
855,D:\AI\Classification-Pipeline\data/plane/plane102.jpg,plane,7,7
856,D:\AI\Classification-Pipeline\data/plane/plane458.jpg,plane,7,7
857,D:\AI\Classification-Pipeline\data/insects/insects336.jpg,insects,4,4
858,D:\AI\Classification-Pipeline\data/tiger/tiger102.jpg,tiger,8,8
859,D:\AI\Classification-Pipeline\data/tree/tree47.jpg,tree,9,9
860,D:\AI\Classification-Pipeline\data/dog/dog9.jpg,dog,2,2
861,D:\AI\Classification-Pipeline\data/lion/lion186.jpg,lion,5,5
862,D:\AI\Classification-Pipeline\data/dog/dog499.jpg,dog,2,2
863,D:\AI\Classification-Pipeline\data/horse/horse44.jpg,horse,3,3
864,D:\AI\Classification-Pipeline\data/plane/plane417.jpg,plane,7,7
865,D:\AI\Classification-Pipeline\data/tiger/tiger182.jpg,tiger,8,8
866,D:\AI\Classification-Pipeline\data/cat/cat33.jpg,cat,1,1
867,D:\AI\Classification-Pipeline\data/tree/tree153.jpg,tree,9,9
868,D:\AI\Classification-Pipeline\data/plane/plane406.jpg,plane,7,7
869,D:\AI\Classification-Pipeline\data/tiger/tiger16.jpg,tiger,8,8
870,D:\AI\Classification-Pipeline\data/insects/insects234.jpg,insects,4,4
871,D:\AI\Classification-Pipeline\data/cat/cat423.jpg,cat,1,1
872,D:\AI\Classification-Pipeline\data/horse/horse124.jpg,horse,3,3
873,D:\AI\Classification-Pipeline\data/insects/insects37.jpg,insects,4,4
874,D:\AI\Classification-Pipeline\data/monkey/monkey312.jpg,monkey,6,6
875,D:\AI\Classification-Pipeline\data/insects/insects454.jpg,insects,4,4
876,D:\AI\Classification-Pipeline\data/plane/plane211.jpg,plane,7,7
877,D:\AI\Classification-Pipeline\data/camera/camera426.jpg,camera,0,0
878,D:\AI\Classification-Pipeline\data/insects/insects195.jpg,insects,4,4
879,D:\AI\Classification-Pipeline\data/lion/lion452.jpg,lion,5,5
880,D:\AI\Classification-Pipeline\data/insects/insects413.jpg,insects,4,4
881,D:\AI\Classification-Pipeline\data/tiger/tiger255.jpg,tiger,8,8
882,D:\AI\Classification-Pipeline\data/cat/cat320.jpg,cat,1,1
883,D:\AI\Classification-Pipeline\data/camera/camera99.jpg,camera,0,0
884,D:\AI\Classification-Pipeline\data/monkey/monkey6.jpg,monkey,6,6
885,D:\AI\Classification-Pipeline\data/camera/camera372.jpg,camera,0,0
886,D:\AI\Classification-Pipeline\data/plane/plane490.jpg,plane,7,7
887,D:\AI\Classification-Pipeline\data/dog/dog20.jpg,dog,2,2
888,D:\AI\Classification-Pipeline\data/insects/insects116.jpg,insects,4,7
889,D:\AI\Classification-Pipeline\data/dog/dog419.jpg,dog,2,2
890,D:\AI\Classification-Pipeline\data/monkey/monkey469.jpg,monkey,6,6
891,D:\AI\Classification-Pipeline\data/camera/camera142.jpg,camera,0,0
892,D:\AI\Classification-Pipeline\data/cat/cat65.jpg,cat,1,1
893,D:\AI\Classification-Pipeline\data/horse/horse267.jpg,horse,3,3
894,D:\AI\Classification-Pipeline\data/dog/dog132.jpg,dog,2,2
895,D:\AI\Classification-Pipeline\data/horse/horse438.jpg,horse,3,3
896,D:\AI\Classification-Pipeline\data/horse/horse434.jpg,horse,3,3
897,D:\AI\Classification-Pipeline\data/dog/dog337.jpg,dog,2,2
898,D:\AI\Classification-Pipeline\data/camera/camera191.jpg,camera,0,0
899,D:\AI\Classification-Pipeline\data/insects/insects423.jpg,insects,4,4
900,D:\AI\Classification-Pipeline\data/tiger/tiger91.jpg,tiger,8,8
901,D:\AI\Classification-Pipeline\data/insects/insects206.jpg,insects,4,4
902,D:\AI\Classification-Pipeline\data/horse/horse231.jpg,horse,3,3
903,D:\AI\Classification-Pipeline\data/tree/tree476.jpg,tree,9,9
904,D:\AI\Classification-Pipeline\data/cat/cat430.jpg,cat,1,1
905,D:\AI\Classification-Pipeline\data/monkey/monkey332.jpg,monkey,6,6
906,D:\AI\Classification-Pipeline\data/monkey/monkey452.jpg,monkey,6,6
907,D:\AI\Classification-Pipeline\data/tree/tree25.jpg,tree,9,9
908,D:\AI\Classification-Pipeline\data/plane/plane80.jpg,plane,7,7
909,D:\AI\Classification-Pipeline\data/insects/insects156.jpg,insects,4,4
910,D:\AI\Classification-Pipeline\data/dog/dog358.jpg,dog,2,2
911,D:\AI\Classification-Pipeline\data/plane/plane181.jpg,plane,7,7
912,D:\AI\Classification-Pipeline\data/horse/horse302.jpg,horse,3,3
913,D:\AI\Classification-Pipeline\data/plane/plane391.jpg,plane,7,7
914,D:\AI\Classification-Pipeline\data/camera/camera448.jpg,camera,0,0
915,D:\AI\Classification-Pipeline\data/monkey/monkey197.jpg,monkey,6,6
916,D:\AI\Classification-Pipeline\data/cat/cat11.jpg,cat,1,1
917,D:\AI\Classification-Pipeline\data/monkey/monkey447.jpg,monkey,6,6
918,D:\AI\Classification-Pipeline\data/plane/plane373.jpg,plane,7,7
919,D:\AI\Classification-Pipeline\data/insects/insects252.jpg,insects,4,4
920,D:\AI\Classification-Pipeline\data/tree/tree420.jpg,tree,9,9
921,D:\AI\Classification-Pipeline\data/monkey/monkey59.jpg,monkey,6,6
922,D:\AI\Classification-Pipeline\data/tree/tree183.jpg,tree,9,9
923,D:\AI\Classification-Pipeline\data/plane/plane192.jpg,plane,7,7
924,D:\AI\Classification-Pipeline\data/horse/horse379.jpg,horse,3,3
925,D:\AI\Classification-Pipeline\data/monkey/monkey249.jpg,monkey,6,6
926,D:\AI\Classification-Pipeline\data/horse/horse50.jpg,horse,3,3
927,D:\AI\Classification-Pipeline\data/horse/horse145.jpg,horse,3,3
928,D:\AI\Classification-Pipeline\data/tiger/tiger288.jpg,tiger,8,8
929,D:\AI\Classification-Pipeline\data/lion/lion232.jpg,lion,5,5
930,D:\AI\Classification-Pipeline\data/dog/dog465.jpg,dog,2,2
931,D:\AI\Classification-Pipeline\data/horse/horse67.jpg,horse,3,3
932,D:\AI\Classification-Pipeline\data/camera/camera143.jpg,camera,0,0
933,D:\AI\Classification-Pipeline\data/plane/plane355.jpg,plane,7,7
934,D:\AI\Classification-Pipeline\data/tree/tree229.jpg,tree,9,9
935,D:\AI\Classification-Pipeline\data/plane/plane344.jpg,plane,7,7
936,D:\AI\Classification-Pipeline\data/camera/camera22.jpg,camera,0,0
937,D:\AI\Classification-Pipeline\data/monkey/monkey500.jpg,monkey,6,6
938,D:\AI\Classification-Pipeline\data/dog/dog1.jpg,dog,2,2
939,D:\AI\Classification-Pipeline\data/tiger/tiger316.jpg,tiger,8,8
940,D:\AI\Classification-Pipeline\data/dog/dog331.jpg,dog,2,5
941,D:\AI\Classification-Pipeline\data/tiger/tiger59.jpg,tiger,8,8
942,D:\AI\Classification-Pipeline\data/dog/dog341.jpg,dog,2,2
943,D:\AI\Classification-Pipeline\data/tiger/tiger469.jpg,tiger,8,8
944,D:\AI\Classification-Pipeline\data/tiger/tiger348.jpg,tiger,8,8
945,D:\AI\Classification-Pipeline\data/dog/dog223.jpg,dog,2,2
946,D:\AI\Classification-Pipeline\data/dog/dog344.jpg,dog,2,2
947,D:\AI\Classification-Pipeline\data/horse/horse485.jpg,horse,3,3
948,D:\AI\Classification-Pipeline\data/tree/tree373.jpg,tree,9,9
949,D:\AI\Classification-Pipeline\data/horse/horse153.jpg,horse,3,3
950,D:\AI\Classification-Pipeline\data/insects/insects133.jpg,insects,4,4
951,D:\AI\Classification-Pipeline\data/cat/cat326.jpg,cat,1,1
952,D:\AI\Classification-Pipeline\data/insects/insects109.jpg,insects,4,4
953,D:\AI\Classification-Pipeline\data/monkey/monkey466.jpg,monkey,6,6
954,D:\AI\Classification-Pipeline\data/cat/cat13.jpg,cat,1,1
955,D:\AI\Classification-Pipeline\data/dog/dog403.jpg,dog,2,2
956,D:\AI\Classification-Pipeline\data/monkey/monkey140.jpg,monkey,6,6
957,D:\AI\Classification-Pipeline\data/tree/tree419.jpg,tree,9,9
958,D:\AI\Classification-Pipeline\data/tree/tree473.jpg,tree,9,9
959,D:\AI\Classification-Pipeline\data/tree/tree385.jpg,tree,9,9
960,D:\AI\Classification-Pipeline\data/insects/insects63.jpg,insects,4,4
961,D:\AI\Classification-Pipeline\data/horse/horse75.jpg,horse,3,3
962,D:\AI\Classification-Pipeline\data/plane/plane77.jpg,plane,7,7
963,D:\AI\Classification-Pipeline\data/tiger/tiger105.jpg,tiger,8,8
964,D:\AI\Classification-Pipeline\data/dog/dog464.jpg,dog,2,2
965,D:\AI\Classification-Pipeline\data/camera/camera138.jpg,camera,0,0
966,D:\AI\Classification-Pipeline\data/monkey/monkey109.jpg,monkey,6,6
967,D:\AI\Classification-Pipeline\data/horse/horse426.jpg,horse,3,3
968,D:\AI\Classification-Pipeline\data/camera/camera118.jpg,camera,0,0
969,D:\AI\Classification-Pipeline\data/plane/plane199.jpg,plane,7,7
970,D:\AI\Classification-Pipeline\data/dog/dog136.jpg,dog,2,2
971,D:\AI\Classification-Pipeline\data/lion/lion83.jpg,lion,5,5
972,D:\AI\Classification-Pipeline\data/dog/dog360.jpg,dog,2,2
973,D:\AI\Classification-Pipeline\data/camera/camera163.jpg,camera,0,0
974,D:\AI\Classification-Pipeline\data/lion/lion222.jpg,lion,5,5
975,D:\AI\Classification-Pipeline\data/tiger/tiger14.jpg,tiger,8,8
976,D:\AI\Classification-Pipeline\data/lion/lion206.jpg,lion,5,5
977,D:\AI\Classification-Pipeline\data/plane/plane46.jpg,plane,7,7
978,D:\AI\Classification-Pipeline\data/dog/dog475.jpg,dog,2,2
979,D:\AI\Classification-Pipeline\data/tree/tree37.jpg,tree,9,9
980,D:\AI\Classification-Pipeline\data/tiger/tiger174.jpg,tiger,8,8
981,D:\AI\Classification-Pipeline\data/monkey/monkey339.jpg,monkey,6,6
982,D:\AI\Classification-Pipeline\data/tree/tree80.jpg,tree,9,9
983,D:\AI\Classification-Pipeline\data/monkey/monkey461.jpg,monkey,6,6
984,D:\AI\Classification-Pipeline\data/cat/cat115.jpg,cat,1,1
985,D:\AI\Classification-Pipeline\data/insects/insects374.jpg,insects,4,4
986,D:\AI\Classification-Pipeline\data/horse/horse345.jpg,horse,3,3
987,D:\AI\Classification-Pipeline\data/monkey/monkey331.jpg,monkey,6,6
988,D:\AI\Classification-Pipeline\data/lion/lion470.jpg,lion,5,5
989,D:\AI\Classification-Pipeline\data/tree/tree353.jpg,tree,9,9
990,D:\AI\Classification-Pipeline\data/tiger/tiger154.jpg,tiger,8,8
991,D:\AI\Classification-Pipeline\data/tree/tree104.jpg,tree,9,9
992,D:\AI\Classification-Pipeline\data/dog/dog61.jpg,dog,2,2
993,D:\AI\Classification-Pipeline\data/camera/camera62.jpg,camera,0,0
994,D:\AI\Classification-Pipeline\data/cat/cat166.jpg,cat,1,1
995,D:\AI\Classification-Pipeline\data/cat/cat182.jpg,cat,1,1
996,D:\AI\Classification-Pipeline\data/tiger/tiger86.jpg,tiger,8,8
997,D:\AI\Classification-Pipeline\data/insects/insects60.jpg,insects,4,4
998,D:\AI\Classification-Pipeline\data/horse/horse225.jpg,horse,3,3
999,D:\AI\Classification-Pipeline\data/monkey/monkey16.jpg,monkey,6,6
