,precision,recall,f1-score,support
camera,1.0,1.0,1.0,100.0
cat,1.0,0.99,0.9949748743718593,100.0
dog,1.0,0.92,0.9583333333333334,100.0
horse,0.970873786407767,1.0,0.9852216748768473,100.0
insects,1.0,0.99,0.9949748743718593,100.0
lion,0.9433962264150944,1.0,0.970873786407767,100.0
monkey,1.0,1.0,1.0,100.0
plane,0.9900990099009901,1.0,0.9950248756218906,100.0
tiger,1.0,1.0,1.0,100.0
tree,1.0,1.0,1.0,100.0
accuracy,0.99,0.99,0.99,0.99
macro avg,0.9904369022723852,0.99,0.9899403418983557,1000.0
weighted avg,0.9904369022723851,0.99,0.9899403418983557,1000.0
